{
    "antifeatures": {
        "Ads": "Appen inneheld reklame"
    },
    "index": {
        "download_fdroid": "Last ned F-Droid",
        "gpg_signature": "PGP-signatur",
        "title": "Kva er F-Droid?"
    },
    "navigation": {
        "about": "Om",
        "contribute": "Hjelp til",
        "documentation": "Dokumentasjon",
        "forum": "Brukarforum",
        "issues": "Innmelde feil",
        "news": "Nyheiter"
    },
    "package": {
        "anti_features": "Antifunksjonalitet",
        "author": "Utviklar",
        "donate": "Gje pengegåve",
        "download": "Last ned [file_extension]",
        "license": "Lisens",
        "new_in_version": "Ny i versjon [latest_version]",
        "packages": "Pakkar",
        "permissions": "Løyve",
        "technical_info": "Teknisk informasjon",
        "version_info": "<b>Versjon [package_version]</b> ([package_version_code]) – lagd til [package_added_date]",
        "website": "Heimeside"
    },
    "permissions": {
        "permdesc_readCallLog": "Appen kan lesa telefonloggen din.",
        "permgroupdesc_sms": "senda og visa SMS-meldingar",
        "permgrouplab_calendar": "Kalender",
        "permgrouplab_calllog": "Telefonloggar",
        "permgrouplab_camera": "Kamera",
        "permgrouplab_location": "Plassering",
        "permgrouplab_microphone": "Mikrofon",
        "permgrouplab_phone": "Telefonnummer",
        "permgrouplab_sensors": "Kroppssensorar",
        "permgrouplab_sms": "SMS",
        "permgrouprequest_calendar": "Tillat <b>",
        "permgrouprequest_calllog": "Tillat <b>",
        "permgrouprequest_contacts": "Tillat <b>",
        "permgrouprequest_location": "Tillat <b>",
        "permgrouprequest_sensors": "Tillat <b>",
        "permgrouprequest_sms": "Tillat <b>",
        "permlab_access_notification_policy": "få tilgang til «Ikkje forstyrr»",
        "permlab_createNetworkSockets": "ha full nettverkstilgang",
        "permlab_modifyAudioSettings": "endra lydinnstillingar",
        "permlab_readContacts": "få tilgang til kontaktlista",
        "permlab_readSyncStats": "lesa synkroniseringsstatistikk",
        "permlab_receiveBootCompleted": "køyr ved oppstart",
        "permlab_receiveMms": "ta imot tekstmeldingar (MMS)",
        "permlab_receiveSms": "ta imot tekstmeldingar (SMS)",
        "permlab_receiveWapPush": "ta imot tekstmeldingar (WAP)",
        "permlab_recordAudio": "ta opp lyd",
        "permlab_runInBackground": "køyra i bakgrunnen",
        "permlab_sdcardRead": "lesa innhaldet på SD-kort",
        "permlab_sendSms": "senda og visa SMS-meldingar",
        "permlab_setWallpaperHints": "endra storleik på bakgrunnsbilete",
        "permlab_statusBarService": "vera statuslinje",
        "permlab_uninstall_shortcut": "avinstallera snarvegar",
        "permlab_useBiometric": "bruka biometrisk maskinvare",
        "permlab_useFingerprint": "bruka fingeravtrykklesar"
    },
    "sidebars": {
        "donate": {
            "flattr_alt": "Gje pengegåve via Flattr",
            "hellotux": "👕 T-skjorter 👕 frå",
            "hellotux_alt": "HELLOTUX",
            "liberapay_alt": "Gje pengegåve via Liberapay",
            "litecoin_alt": "Gje pengegåve via Litecoin",
            "paypal_alt": "Gje pengegåve via PayPal",
            "via_bank_transfer": "Bankoverføring"
        },
        "lang": {
            "change": "Endra"
        },
        "last_updated": {
            "heading": "Sist oppdatert"
        },
        "latest_packages": {
            "heading": "Nyaste appar"
        },
        "news": {
            "heading": "Nyheiter"
        },
        "search": {
            "heading": "Finn appar"
        }
    }
}
